…
Przyrządem pomiarowym waga lidla i kuchenna. Sam plecak mocno powyżej 5kg, ale co się na to składa?

library(readr)
library(here)
library(tidyverse)
plecak <- read_delim(here("data/plecak.csv"), ";", 
    escape_double = FALSE, col_types = cols(X4 = col_skip(), 
        X5 = col_skip(), X6 = col_skip(), 
        X7 = col_skip()), trim_ws = TRUE)
plecak <-
  plecak %>% 
  fill(Przedmiot)
plecak

## # A tibble: 33 x 3
##    Przedmiot  Rzecz            Waga
##    <chr>      <chr>           <int>
##  1 Polski     Ćwiczenia         296
##  2 Polski     Podręcznik lit.   717
##  3 Polski     Podręcznik ort.   521
##  4 Polski     Zeszyt 60k        142
##  5 Matematyka Podręcznik        383
##  6 Matematyka Ćwiczenia         166
##  7 Matematyka Zeszyt 60k        148
##  8 Przyroda   Atlas             363
##  9 Przyroda   Podręcznik        345
## 10 Przyroda   Ćwiczenia         277
## # ... with 23 more rows
…
